"","nazwa","ekran","pamiec_RAM","dysk","cena","liczb_opinii","ocena"
"1","Air",13,8,128,"2599","9",5
"2","Pro",13,8,128,"2400","20",5
"3","Retina",15,8,256,"1999 ","199 ",3
"4","Air 2",13,8,512,"2199 ","219 ",5
"5","Pro 2",16,16,256,"3199","39",4
"6","Pro Air",15,4,256,"3099","99",5
"7","Pro 3",13,8,128,"2699","26",5
"8","Pro 4",15,16,512,"3599","359",5
"9","Air 3 ",16,16,256,"3099","99",3
"10","Retina 2",13,8,512," 3099"," 30",2
"11","Pro Retina",30,8,256,"3099","19",4
